{
    "name": "jquery",
    "repo": "components/jquery",
    "version": "3.4.1",
    "description": "jQuery component",
    "license": "MIT",
    "keywords": [
        "jquery",
        "component"
    ],
    "main": "jquery.js",
    "scripts": [
        "jquery.js",
        "jquery.min.js",
        "jquery.slim.js",
        "jquery.slim.min.js"
    ],
    "files": [
        "jquery.min.map",
        "jquery.slim.min.map"
    ]
}
